verification/sim_pulsos_tb_golden_f34.vcd
$date
	Sun Jul 19 13:08:24 2026
$end
$version
	Icarus Verilog
$end
$timescale
	100ps
$end
$scope module sim_pulsos_tb $end
$var wire 30 ! shaper_out [29:0] $end
$var wire 30 " shaper_corrupted [29:0] $end
$var wire 12 # shaper_clip [11:0] $end
$var wire 29 $ pzc_out [28:0] $end
$var wire 13 % pedestal_out [12:0] $end
$var wire 17 & noise_out [16:0] $end
$var wire 1 ' hits_out $end
$var wire 13 ( event_bt [12:0] $end
$var wire 13 ) event_all [12:0] $end
$var wire 13 * energy_out [12:0] $end
$var wire 1 + bt_mask_out $end
$var parameter 65 , N_CICLOS $end
$var parameter 32 - N_ORBITAS $end
$var parameter 32 . ORBITA $end
$var parameter 72 / RTL_DIR $end
$var reg 1 0 clk $end
$var reg 7 1 occupancy [6:0] $end
$var reg 13 2 offset [12:0] $end
$var reg 1 3 rst $end
$upscope $end
$enddefinitions $end
$comment Show the parameter values. $end
$dumpall
b1011100010111000101111001011100010111000101111011100100111010001101100 /
b110111101100 .
b11 -
b10101010001100 ,
$end
#0
$dumpvars
13
b10010010 2
b11001 1
00
0+
b0 *
b0 )
b0 (
0'
b0 &
b0 %
b0 $
b0 #
b0 "
b0 !
$end
#125
10
#250
00
#375
10
#500
00
#625
10
#750
00
#875
b10000001101111110 $
b1 )
b1 *
b10010010 #
03
10
#1000
00
#1125
b10000010000010000 $
b1111010110011 "
b1111010110011 &
b0 )
b1000000 *
10
#1250
00
#1375
b111111111111111110001010110011 "
b10001000100010011 $
b1 *
b11110001010110011 &
b10011001 #
10
#1500
00
#1625
b1111011100000011 $
b111111111111111111100101001101 "
b11110000 )
b10001010 #
b11111100101001101 &
b11110000 *
10
#1750
00
#1875
b11000011100110 "
b10000001000110111 $
b0 )
b110100 *
b11000011100110 &
b10010000 #
10
#2000
00
#2125
b10001101110101001 $
b111111111111111111001000011010 "
b10011110 #
b11111001000011010 &
b10111001 *
10
#2250
00
#2375
b111111111111111111001010000000 "
b1111111111010111 $
b101100111 *
b11111001010000000 &
b10001110 #
10
#2500
00
#2625
b10000000001100101 $
b10110011 "
b10110011 &
b1111011100 *
10
#2750
00
#2875
b11000010110011 "
b10000100000001111 $
b10001 *
b11000010110011 &
b10010010 #
10
#3000
00
#3125
b10001110111110101 $
b111111111111111110000111100110 "
b10011110 #
b11110000111100110 &
b100000000 *
10
#3250
00
#3375
b111111111111111111001100011010 "
b1111101100000111 $
b111001 *
b11111001100011010 &
b10001010 #
10
#3500
00
#3625
b10000001010101101 $
b111111111111111111111000011010 "
b10000111 )
b10001110 #
b11111111000011010 &
b10000111 *
10
#3750
00
#3875
b1000000011010 "
b10000100010010000 $
b0 )
b1001111 *
b1000000011010 &
b10010001 #
10
#4000
00
#4125
b10001001000000100 $
b1101001001101 "
b10010110 #
b1101001001101 &
b1 *
10
#4250
00
#4375
b100110000000 "
b10001011000101000 $
b100001011 *
b100110000000 &
b10011000 #
10
#4500
00
#4625
b10000111110100100 $
b111111111111111101101000011010 "
b10010100 #
b11101101000011010 &
b10000000 *
10
#4750
00
#4875
b111001011 )
b10111011100110 "
b1111101011100100 $
b111001011 *
b10111011100110 &
b10001000 #
10
#5000
00
#5125
b10010000010111111 $
b100000011010 "
b10011101 #
b100000011010 &
b0 )
b1110010 *
10
#5250
00
#5375
b111111111111111011011100011010 "
b10001000101011101 $
b10100 *
b11011011100011010 &
b10010100 #
10
#5500
00
#5625
b1110110010011110 $
b111111111111111011100110000000 "
b1101100 )
b1111111 #
b11011100110000000 &
b1101100 *
10
#5750
00
#5875
b1010110011 "
b1110111011100100 $
b0 )
b1010010 *
b1010110011 &
b10000000 #
10
#6000
00
#6125
b10000111101100010 $
b111111111111111110101001001101 "
b10010010 #
b11110101001001101 &
b10110010 *
10
#6250
00
#6375
b111111111111111110011010000000 "
b10000010101001010 $
b110001 *
b11110011010000000 &
b10001100 #
10
#6500
00
#6625
b10000010000001111 $
b110111100110 "
b10001011 #
b110111100110 &
b111001101 *
10
#6750
00
#6875
b111101001101 "
b10001011001100000 $
b1000001 *
b111101001101 &
b10010101 #
10
#7000
00
#7125
b10001011011110101 $
b111111111111111100011000011010 "
b11100011000011010 &
b11 *
10
#7250
00
#7375
b100 )
b10000001001101 "
b1111011110001100 $
b100 *
b10000001001101 &
b10000011 #
10
#7500
00
#7625
b10010000011110000 $
b111010110011 "
b0 )
b10011010 #
b111010110011 &
10
#7750
00
#7875
b11 )
b11001010110011 "
b10001100010100111 $
b11 *
b11001010110011 &
b10010101 #
10
#8000
00
#8125
b10010100100111011 $
b111111111111111111000011100110 "
b10011110 #
b11111000011100110 &
b1 )
b1 *
10
#8250
00
#8375
b111111111111111110000110000000 "
b10000101110100010 $
b11110000110000000 &
b10001110 #
b1 %
10
#8500
00
#8625
b1110000011110 $
b1000000011010 "
b10001010 #
b1000000011010 &
10
#8750
00
#8875
b111111111111111101000011100110 "
b11000111111011 $
b11101000011100110 &
b10010110 #
10
#9000
00
#9125
b1011000100000 $
b111111111111111110010100011010 "
b0 )
b10000110 #
b11110010100011010 &
10
#9250
00
#9375
b1111101 )
b10001001101 "
b1111110001000 $
b1111101 *
b10001001101 &
b10001011 #
10
#9500
00
#9625
b10111001001010 $
b111111111111111100001010110011 "
b10010011 #
b11100001010110011 &
b1 )
b1 *
10
#9750
00
#9875
b1101001001101 "
b1000010100101 $
b10101 )
b10101 *
b1101001001101 &
b10000010 #
10
#10000
00
#10125
b11100001000000 $
b10001001001101 "
b10011000 #
b10001001001101 &
b0 )
b110000 *
10
#10250
00
#10375
b111111111111111110101001001101 "
b10000100101 $
b11110101001001101 &
b10011010 #
10
#10500
00
#10625
b11111111111111110101111011100 $
b111111111111111100110100011010 "
b10001100 #
b11100110100011010 &
b1010111 *
10
#10750
00
#10875
b10011100011010 "
b11111111111111101111111110110 $
b101100011 *
b10011100011010 &
b10000101 #
10
#11000
00
#11125
b11110010100 $
b1001011100110 "
b10011011 #
b1001011100110 &
b10110 *
10
#11250
00
#11375
b11100111100110 "
b11111111111111111111101001011 $
b1111101 *
b11100111100110 &
b10010110 #
10
#11500
00
#11625
b1000110100110 $
b100100011010 "
b10100000 #
b100100011010 &
b1111011010 *
10
#11750
00
#11875
b111111111111111110001001001101 "
b11111111111111111110011110001 $
b10100001 *
b11110001001001101 &
b10010100 #
10
#12000
00
#12125
b11111111111111110101110111110 $
b101110110011 "
b11010111 )
b10001010 #
b101110110011 &
b11010111 *
10
#12250
00
#12375
b101100011010 "
b11111111111111111111000001101 $
b101111 )
b101111 *
b101100011010 &
b10010100 #
10
#12500
00
#12625
b11111111111111111111010100000 $
b111111111111111110011011100110 "
b11110011011100110 &
b0 )
b11000111 *
10
#12750
00
#12875
b111111111111111111010111100110 "
b11111111111111110111100110100 $
b101010001 *
b11111010111100110 &
b10001011 #
10
#13000
00
#13125
b11111111111111111011011011010 $
b1000100011010 "
b10001111 #
b1000100011010 &
b1110011 *
10
#13250
00
#13375
b10110011 "
b1111011001 $
b101011000 *
b10110011 &
b10010110 #
10
#13500
00
#13625
b11111111111111111110101010010 $
b111111111111111111000111100110 "
b10010010 #
b11111000111100110 &
b11110111 *
10
#13750
00
#13875
b100000011010 "
b11111111111111111011011000111 $
b1111111 *
b100000011010 &
b10001110 #
10
#14000
00
#14125
b111111110 $
b11001010000000 "
b110101 )
b10010100 #
b11001010000000 &
b110101 *
10
#14250
00
#14375
b111111111111111010111110110011 "
b1010001010111 $
b0 )
b1000110 *
b11010111110110011 &
b10011110 #
10
#14500
00
#14625
b11111111111111101101001001101 $
b111111111111111101100010000000 "
b1111101 #
b11101100010000000 &
b1100000 *
10
#14750
00
#14875
b111111111111111111111100011010 "
b11111111111111110111001010110 $
b111010111 *
b11111111100011010 &
b10001000 #
10
#15000
00
#15125
b11111111111111111111011011100 $
b111111111111111101001110000000 "
b10010001 #
b11101001110000000 &
b1101110001 *
10
#15250
00
#15375
b11001111 )
b111111111111111111100110000000 "
b11111111111111110101111011111 $
b11001111 *
b11111100110000000 &
b10000110 #
10
#15500
00
#15625
b11111111111111111111000101010 $
b111111111111111110111110000000 "
b10010000 #
b11110111110000000 &
b0 )
b10 *
10
#15750
00
#15875
b1 )
b1010100011010 "
b11111111111111111100101100100 $
b1 *
b1010100011010 &
b10001101 #
10
#16000
00
#16125
b101110110110 $
b111111111111111100001010110011 "
b10010111 #
b11100001010110011 &
b0 )
b10000000 *
10
#16250
00
#16375
b111111111111111101101111100110 "
b11111111111111110011011111001 $
b10010 *
b11101101111100110 &
b10000010 #
10
#16500
00
#16625
b11111111111111111001000100100 $
b1001011100110 "
b10001000 #
b1001011100110 &
b100100 *
10
#16750
00
#16875
b111111111111111110000001001101 "
b101110001101 $
b10011001 *
b11110000001001101 &
b10010110 #
10
#17000
00
#17125
b11111111111111111011011001110 $
b111111111111111101100101001101 "
b1101101 )
b10001010 #
b11101100101001101 &
b1101101 *
10
#17250
00
#17375
b1000011010 "
b11111111111111111001111001001 $
b0 )
b11110 *
b1000011010 &
b10001000 #
10
#17500
00
#17625
b11000010110 $
b100011010000000 "
b10010010 #
b100011010000000 &
b11010001 *
10
#17750
00
#17875
b11000110 )
b10111100011010 "
b10010011011110 $
b11000110 *
b10111100011010 &
b10100011 #
10
#18000
00
#18125
b1101011010110 $
b111111111111111111101100011010 "
b10011101 #
b11111101100011010 &
b0 )
b1 *
10
#18250
00
#18375
b101010110011 "
b10001010111 $
b10100111000 *
b101010110011 &
b10010000 #
10
#18500
00
#18625
b10111 (
1'
b110000000010 $
b110010000000 "
1+
b10111 )
b10010100 #
b110010000000 &
b10111 *
10
#18750
00
#18875
0'
b111010000000 "
b111001011100 $
b0 )
b0 (
b11110001 *
b111010000000 &
b10010101 #
10
#19000
00
#19125
b111011110000 $
b10101110110011 "
b10101110110011 &
b100100001 *
10
#19250
00
#19375
b11000011010 "
b1101111110101 $
b10110101 *
b11000011010 &
b10011100 #
10
#19500
00
#19625
b10001011001111 !
b1100000 (
b110010010001 $
b11000110110101 "
1'
b1100000 )
b10010011 #
b111011100110 &
b1100000 *
10
#19750
00
#19875
b101101111111111 !
0'
b11101100011001 "
b10000010110000 $
b0 )
b0 (
b1101001 *
b11101111100011010 &
b10011110 #
10
#20000
00
#20125
b10101111101000 !
b111000 (
b10010011011011 $
b101101101101000 "
1'
b111000 )
b10100000 #
b10111110000000 &
b111000 *
10
#20250
00
#20375
b10111100001 !
0'
b1000011000111 "
b11001110110010 $
b0 )
b0 (
b10111100 *
b101011100110 &
b10101000 #
10
#20500
00
#20625
b1000111111101110 !
b1010001011011 $
b111101000111011 "
b10010110 #
b11110101001001101 &
b11000110 *
10
#20750
00
#20875
b10111111010110101 !
b10110100001101000 "
b100001100100110 $
b10110 *
b11110100110110011 &
b10110000 #
10
#21000
00
#21125
b10000101111000101 !
b1010111001111001 $
b10010101100010010 "
b11101100 #
b1111101001101 &
b100011 *
10
#21250
00
#21375
b1101101 (
b1111011101110101 !
1'
b1101101 )
b1111101101011011 "
b1001001011110100 $
b1101101 *
b1111100110 &
b11011100 #
10
#21500
00
#21625
b110010010101101 !
b111111001111011 $
b11100001100000 "
0'
b11010000 #
b11101001110110011 &
b0 )
b0 (
b100100 *
10
#21750
00
#21875
b100010111100 !
b111111111111111111000110100010 "
b10100111111010 $
b10010000 *
b11110100011100110 &
b10100000 #
10
#22000
00
#22125
b111111111111111111101110011110 !
b1011001 (
b101010011011 $
b10110111000 "
1'
b1011001 )
b10001110 #
b101000011010 &
b1011001 *
10
#22250
00
#22375
b1001110101010101 !
0'
b1000110111010101 "
b1010000001011 $
b0 )
b0 (
b1001101001 *
b11111000010000000 &
b10010011 #
10
#22500
00
#22625
b11011000011101011 !
b10101100 (
b101000100001011 $
b11100010100111000 "
1'
b10101100 )
b10110101 #
b1010001001101 &
b10101100 *
10
#22750
00
#22875
b1100110000011111 !
0'
b111000100000101 "
b1101110001100001 $
b0 )
b0 (
b101010001 *
b11010010011100110 &
b100000011 #
10
#23000
00
#23125
b1010000010001110 !
b100011001010000 $
b1001000111011011 "
b10101110 #
b11111000101001101 &
b11100110 *
10
#23250
00
#23375
b10101110000111001 !
b11000000011101100 "
b101010100110101 $
b100110111 *
b10010010110011 &
b10110110 #
10
#23500
00
#23625
b11010011101001101 !
b1100000010001110 $
b10111101100110011 "
b11110010 #
b11101001111100110 &
b1101000 *
10
#23750
00
#23875
b101100010010110011 !
b101101101001100110 "
b1011110111110001 $
b101110010 *
b1010110110011 &
b11110000 #
10
#24000
00
#24125
b10011110100101000 !
b10101101101001000 $
b10100001100001110 "
b101001000 #
b10111100110 &
b10 *
10
#24250
00
#24375
b10001101111010 !
b1110011111010 "
b1010011101000101 $
b11100010 *
b11111100110000000 &
b11100010 #
10
#24500
00
#24625
b111111111111111111001010101011 !
b10011001100111 $
b111111111111111100101011000101 "
b10011001 #
b11101100000011010 &
b11111110 *
10
#24750
00
#24875
b11011101 (
b111111111111111111000011111010 !
1'
b11011101 )
b111111111111111110110010101101 "
b110101100 $
b11011101 *
b11111101110110011 &
b10000100 #
10
#25000
00
#25125
b111111111111111111101010011110 !
b1001000101110 $
b111111111111111110000110000100 "
0'
b10001101 #
b11110011011100110 &
b0 )
b0 (
b10001 *
10
#25250
00
#25375
b111111111111111111010101110010 !
b111111111111111111001111110010 "
b110101100101 $
b11100 *
b11111111010000000 &
b10001010 #
10
#25500
00
#25625
b111111111111111111100111010111 !
b1001000111 (
b1010100001010 $
b111110001 "
1'
b1001000111 )
b10001110 #
b100000011010 &
b1001000111 *
10
#25750
00
#25875
b10100101001010010 !
b10010001011010010 "
b1110010110011 $
b110100 )
b110100 (
b110100 *
b11101100010000000 &
b10010010 #
10
#26000
00
#26125
b110111000100100011 !
b1001110100111100 $
b110011110010100011 "
b11011010 #
b11100101110000000 &
b11000010 )
b11000010 (
b11000010 *
10
#26250
00
#26375
b11010001100010010 !
0'
b11010000000101100 "
b11000111000000110 $
b0 )
b0 (
b11111101 *
b11111110100011010 &
b101100001 #
10
#26500
00
#26625
b111010011111111100 !
b1101100001010101 $
b111100011001001001 "
b11111010 #
b1111001001101 &
b1111100 *
10
#26750
00
#26875
b10010101101010111000 !
b10011000100101101011 "
b11100110011001101 $
b110110 *
b10111010110011 &
b110000011 #
10
#27000
00
#27125
b1100011111110000110 !
b1000101111000100110 $
b1100001011011010011 "
b1011110100 #
b11101011101001101 &
b110010011 *
10
#27250
00
#27375
b111111101100110010 !
b1000001011100011000 "
b101101100001001110 $
b10100111 *
b1101111100110 &
b1000010111 #
10
#27500
00
#27625
b10101000001001100 !
b0 (
b11111011011100100 $
b10100111001100110 "
0+
0'
b1100100 )
b110010111 #
b11111111000011010 &
b1100100 *
10
#27750
00
#27875
b11000111010 !
b10101001010100 "
b1011110000011100 $
b0 )
b100010110 *
b10010000011010 &
b11100101 #
10
#28000
00
#28125
b111111111111111110011000110111 !
b11101101000001 $
b111111111111111101110110000100 "
b10011100 #
b11111011101001101 &
b10011 *
10
#28250
00
#28375
b111111111111111101010111111000 !
b111111111111111111000110101011 "
b1101000010111 $
b1100010 *
b1101110110011 &
b10001001 #
10
#28500
00
#28625
b111111111111111110100101010111 !
b10001110000010 $
b111111111111111111000000001010 "
b10001110 #
b11010110011 &
b10000111 *
10
#28750
00
#28875
b111111111111111110101001001000 !
b10010101 "
b10010000001111 $
b1101001 *
b1011001001101 &
10
#29000
00
#29125
b111111111111111111001110011111 !
b10101110111000 $
b111111111111111101011011101100 "
b10010010 #
b11110001101001101 &
b101011110 *
10
#29250
00
#29375
b10010100 (
b111111111111111111011001001110 !
1'
b10010100 )
1+
b100001100000001 "
b1100010111100 $
b10010100 *
b100110010110011 &
b10000111 #
10
#29500
00
#29625
b111111111111111111011111010100 !
b100100100111111 $
b1011111101110 "
0'
b10100010 #
b10000000011010 &
b0 )
b0 (
b10001 *
10
#29750
00
#29875
b111111111111111111011111010100 !
b111111111111111111001000100001 "
b11011001010011 $
b100111 *
b11111101001001101 &
b10010111 #
10
#30000
00
#30125
b111111111111111111011111010110 !
b10011011101010 $
b111111111111111110010010111100 "
b10001110 #
b11110110011100110 &
b1001100 *
10
#30250
00
#30375
b1101011111010010 !
b1011010010111000 "
b10001000100010 $
b111101110 *
b11101110011100110 &
b10001011 #
10
#30500
00
#30625
b100100011111001101 !
b111111100011000 $
b11110110111100111 "
b10111111 #
b11010011000011010 &
b11011100 *
10
#30750
00
#30875
b10001001001011110 !
b10010111101111000 "
b10000101001111000 $
b11100011 *
b1110100011010 &
b100001101 #
10
#31000
00
#31125
b1110110101110 !
b1011011000110100 $
b101000111111011 "
b11011101 #
b11010001001101 &
b11100111 *
10
#31250
00
#31375
b111111111111111110111100100101 !
b111011000 "
b101010101001111 $
b100010 *
b1001010110011 &
b10100110 #
10
#31500
00
#31625
b111111111111111110111110111001 !
b11001001101000 $
b111111111111111100101000111001 "
b10010010 #
b11101101010000000 &
b1010 *
10
#31750
00
#31875
b111111111111111111011001100001 !
b111111111111111100110101000111 "
b1101000010111 $
b11010111 *
b11101011011100110 &
b10000100 #
10
#32000
00
#32125
b111111111111111111000100001001 !
b1110001100001 $
b111111111111111110011111101111 "
b10000101 #
b11111011011100110 &
b11111001 *
10
#32250
00
#32375
b11001 (
b111111111111111111010000111001 !
1'
b11001 )
b111100011111 "
b10011110001111 $
b11001 *
b1101011100110 &
b10001011 #
10
#32500
00
#32625
b111111111111111111010111110110 !
b11100111011111 $
b111111111111111101111110101001 "
0'
b10010101 #
b11110100110110011 &
b0 )
b0 (
b1100000 *
10
#32750
00
#32875
b111111111111111111011100100000 !
b111111111111111101010010100000 "
b10010100011111 $
b101010 *
b11101110110000000 &
b10001001 #
10
#33000
00
#33125
b111111111111111111011100100001 !
b10001000011001 $
b1001100111011 "
b10000111 #
b1110000011010 &
b10101 *
10
#33250
00
#33375
b1000011 (
b1110011111001 !
1'
b1000011 )
b110100101111001 "
b11110101001000 $
b1000011 *
b100110010000000 &
b10010110 #
10
#33500
00
#33625
b101101100100001 !
b110010011110111 $
b111001000111011 "
0'
b10101100 #
b1011100011010 &
b0 )
b0 (
b101000011 *
10
#33750
00
#33875
b10011011011101 !
b10000101011101 "
b110100100110000 $
b1011010110 *
b11111101010000000 &
b10101110 #
10
#34000
00
#34125
b111111111111111111110110001010 !
b100011001010001 $
b111111111111111110111001110000 "
b10011010 #
b11111000011100110 &
b1101100 *
10
#34250
00
#34375
b110010111 (
b101101100010101 !
1'
b110010111 )
b101001010010101 "
b10111111001111 $
b110010111 *
b11111011110000000 &
b10001101 #
10
#34500
00
#34625
b10000000111000100 !
b101110011001010 $
b10000111001000100 "
0'
b10100110 #
b110010000000 &
b0 )
b0 (
b101001000 *
10
#34750
00
#34875
b111011011010000 !
b1000110101010000 "
b1011000011111000 $
b1111 *
b1011010000000 &
b11010101 #
10
#35000
00
#35125
b11100100100 !
b111100011101100 $
b10100001110001 "
b10110101 #
b10000101001101 &
b10 *
10
#35250
00
#35375
b1000100 (
b100101101010001111 !
1'
b1000100 )
b100100001101000010 "
b100110100110001 $
b1000100 *
b11110100010110011 &
b10011100 #
10
#35500
00
#35625
b1100100111100001111 !
b10011101111110110 $
b1101001010011000010 "
b100100010 #
b100010110110011 &
b1101 )
b1101 (
b1101 *
10
#35750
00
#35875
b101111111101001101 !
0'
b101101100100000000 "
b110010100101101010 $
b0 )
b0 (
b10110100 *
b11101100110110011 &
b1000110111 #
10
#36000
00
#36125
b101101111111100 !
b11000001011010111 $
b100100001001001 "
b101001000 #
b11110110001001101 &
b1111100 *
10
#36250
00
#36375
b100010001011111 !
b11100101111001 "
b110000010100010 $
b101100 *
b11111010100011010 &
b10100100 #
10
#36500
00
#36625
b10000001101111111 !
b101101000101001 $
b10000110000110010 "
b10100000 #
b100010110011 &
b100100000 *
10
#36750
00
#36875
b1010100001110100 !
b1101111011110100 "
b1011100011111011 $
b101111001 *
b11011010000000 &
b11010101 #
10
#37000
00
#37125
b111000100111 !
b1010010001111011 $
b1011011011010 "
b11001001 #
b100010110011 &
b101101 *
10
#37250
00
#37375
b111111111111111110110000000111 !
b11100101010100 "
b100110001100101 $
b100000 *
b100110101001101 &
b10010111 #
10
#37500
00
#37625
b111111111111111110110011111010 !
b101110011111010 $
b111111111111111001101001111010 "
b10100000 #
b11010110110000000 &
b100111 *
10
#37750
00
#37875
b111111111111111111001101000101 !
b110111111000 "
b1011010000001 $
b110100101 *
b1101010110011 &
b1111000 #
10
#38000
00
#38125
b111111111111111111000101101000 !
b100101010000011 $
b111111111111111110001100011011 "
b10010101 #
b11111000110110011 &
b110110 *
10
#38250
00
#38375
b111111111111111111001001101001 !
0+
b111111111111111110110111101001 "
b11011110001010 $
b11010000 *
b11111101110000000 &
b10001010 #
10
#38500
00
#38625
b111111111111111111001101111101 !
b11110101101000 $
b111111111111111110110101100011 "
b10001101 #
b11111100111100110 &
b101101011 *
10
#38750
00
#38875
b111111111111111111010000101101 !
b111111111111111110111001111010 "
b11110111110100 $
b101100100 *
b11111101001001101 &
10
#39000
00
#39125
b111111111111111111010001001010 !
b11111010000000 $
b1001111111101 "
b1111110110011 &
b1110100 *
10
#39250
00
#39375
b111111111111111111010001001011 !
b10100111001011 "
b100111100001011 $
b1011111110 *
b11010110000000 &
b10010110 #
10
#39500
00
#39625
b111111111111111111010001001101 !
b101101001001010 $
b111111111111111101010111001101 "
b100 )
b10011100 #
b11110000110000000 &
b100 *
10
#39750
00
#39875
b111111111111111111010001001111 !
b111111111111111111010100110101 "
b11010110010010 $
b110110010 )
b110110010 *
b11100110 &
b10000111 #
10
#40000
00
#40125
b111111111111111111010001010001 !
b100010001010000 $
b1100100110111 "
b10001111 #
b10010011100110 &
b0 )
b10000 *
10
#40250
00
#40375
b111111111111111111010001010011 !
b10101000111001 "
b101010011011101 $
b11001011 *
b11010111100110 &
b10011000 #
10
#40500
00
#40625
b111111111111111111010001010100 !
b101110010010000 $
b111111111111111111110010100001 "
b10011100 #
b100001001101 &
b100110100 *
10
#40750
00
#40875
b111111111111111111010001010110 !
b111111111111111111000110100011 "
b100100110011110 $
b10000001 *
b11111110101001101 &
b10010001 #
10
#41000
00
#41125
b111111111111111111010001011001 !
b100010011011001 $
b111001110011 "
b10001110 #
b1101000011010 &
b11011111 *
10
#41250
00
#41375
b111111111111111111010001011010 !
b111111111111111101000101110100 "
b101000111010111 $
b11111010 *
b11101110100011010 &
b10010101 #
10
#41500
00
#41625
b111111111111111111010001011011 !
b11011111000010 $
b111111111111111111110101000001 "
b100110101 )
b10000110 #
b100011100110 &
b100110101 *
10
#41750
00
#41875
b111111111111111111010001011101 !
b100011101000011 "
b100101111010100 $
b0 )
b10110111 *
b101001011100110 &
b10010001 #
10
#42000
00
#42125
b111111111111111111010001011111 !
b110110001100010 $
b111111111111111101111110101100 "
b10100011 #
b11110101101001101 &
b11101101 *
10
#42250
00
#42375
b111111111111111111010001100010 !
b10111010101111 "
b11111011001110 $
b100000100 *
b11101001001101 &
b10001001 #
10
#42500
00
#42625
b111111111111111111010001100011 !
b110001011100010 $
b111111111111111100110100010110 "
b10011101 #
b11101100010110011 &
b101101000 *
10
#42750
00
#42875
b111111111111111111010001100100 !
b111111111111111101101110110001 "
b11100011010110 $
b1100101110 *
b11110011101001101 &
b10000101 #
10
#43000
00
#43125
b111111111111111111010001100111 !
b11111010101111 $
b10111110000001 "
b10001000 #
b11101100011010 &
b11000 *
10
#43250
00
#43375
b111111111111111111010001101000 !
b111111111111111100101110000010 "
b110010010001001 $
b1000010 *
b11101011100011010 &
b10011101 #
10
#43500
00
#43625
b111111111111111111010001101010 !
b11100010110110 $
b1001010110111 "
b10000100 #
b1111001001101 &
b100111011 *
10
#43750
00
#43875
b111111111111111111010001101100 !
b111111111111111100000111101100 "
b101100100110111 $
b100100100 *
b11100110110000000 &
b10010110 #
10
#44000
00
#44125
b111111111111111111010001101110 !
b11011001000000 $
b111111111111111111100011101110 "
b10000010 #
b10010000000 &
b111100 *
10
#44250
00
#44375
b111111111111111111010001110000 !
b111111111111111111001110111101 "
b100111110100011 $
b110 *
b11111111101001101 &
b10010000 #
10
#44500
00
#44625
b111111111111111111010001110001 !
b100110010100100 $
b111111111111111111100010001011 "
b10001110 #
b10000011010 &
b1101011 *
10
#44750
00
#44875
b111111111111111111010001110011 !
b10110011000000 "
b101000010111111 $
b1000101 *
b11100001001101 &
b10010000 #
10
#45000
00
#45125
b111111111111111111010001110101 !
b110100001101001 $
b111111111111111100001010001111 "
b10000111 )
b10011101 #
b11100111000011010 &
b10000111 *
10
#45250
00
#45375
b111111111111111111010001110111 !
b10011000100 "
b11100100001000 $
b101100 )
b101100 *
b1000001001101 &
b10000010 #
10
#45500
00
#45625
b111111111111111111010001111000 !
b101011111000000 $
b11000111000101 "
b10010011 #
b11110101001101 &
b0 )
b1000110 *
10
#45750
00
#45875
b111111111111111111010001111010 !
b10111100 )
b111111111111111111111111111010 "
b110101111011111 $
b10111100 *
b101110000000 &
b10011110 #
10
#46000
00
#46125
b1101100 (
b111111111111111111010001111011 !
1'
b101001110011010 $
b1101100101110 "
1+
b10 %
b10010001 #
b10011010110011 &
b1101100 )
b1101100 *
10
#46250
00
#46375
b111111111111111111010001111111 !
0'
b111111111111111100100110011001 "
b1110111011000 $
b0 )
b0 (
b10100101 *
b11101010100011010 &
b10011000 #
10
#46500
00
#46625
b111111111111111111010010000000 !
b100001101 (
b11111111111111111101011100010 $
b111111111111111101111010011010 "
1'
b100001101 )
b10000100 #
b11110101000011010 &
b100001101 *
10
#46750
00
#46875
b111111111111111111010010000001 !
b111111111111111111011101100111 "
b10001000111 $
b1001010 )
b1001010 (
b1001010 *
b1011100110 &
b10001001 #
10
#47000
00
#47125
b1001011111110101 !
b111101111000 $
b1100001101000010 "
b10001111 #
b10101101001101 &
b1000111 )
b1000111 (
b1000111 *
10
#47250
00
#47375
b0 (
b11010010001111100 !
0'
b0 )
b11011110011001001 "
b110101010101010 $
b1100001001101 &
b11000010 #
10
#47500
00
#47625
b100101100111001001 !
b1101101101100011 $
b100110111101111100 "
b100000001 #
b1010110110011 &
b11010100 *
10
#47750
00
#47875
b1001011010000001011 !
b1000100101101011000 "
b10010101010010110 $
b11101 *
b11001011101001101 &
b100101101 #
10
#48000
00
#48125
b111000001100011001 !
b11111111101000010 $
b110111011111111111 "
b110100100 #
b11111010011100110 &
b101010 *
10
#48250
00
#48375
b11101110010011000 !
b11110101000011000 "
b11010001010110001 $
b100010111 *
b110110000000 &
b101101111 #
10
#48500
00
#48625
b111111000010001 !
b1111010000101001 $
b1001011111000100 "
b100001100 #
b1100110110011 &
b11111011 *
10
#48750
00
#48875
b111111111111111110111010010010 !
b111111111111111101100101111000 "
b101111000100000 $
b1111 *
b11110101011100110 &
b10110111 #
10
#49000
00
#49125
b111111111111111110011011110010 !
b11100 (
b101101001100 $
b111111111111111101101101110010 "
1'
b11100 )
b10001000 #
b11111010010000000 &
b11100 *
10
#49250
00
#49375
b111111111111111110001000011011 !
0'
b111111111111111101010100000001 "
b101111010010 $
b0 )
b0 (
b10011000 *
b11111001011100110 &
10
#49500
00
#49625
b111111111111111110100100111111 !
b101010010001 $
b1011010001100 "
b10000111 #
b10110101001101 &
b1101100 *
10
#49750
00
#49875
b111111111111111110101101110000 !
b111111111111111111100110001010 "
b10011110000110 $
b10110000 *
b111000011010 &
b10010111 #
10
#50000
00
#50125
b1101001010000 !
b1101110101010 $
b100010010011101 "
b10010000 #
b10101001001101 &
b11110011 *
10
#50250
00
#50375
b110000101011001 !
b10101100001100 "
b11110111111101 $
b1 *
b11100100110110011 &
b10100011 #
10
#50500
00
#50625
b10011101011110 !
b11001000101101 $
b1010010101011 "
b10011100 #
b11110110101001101 &
b101111001 *
10
#50750
00
#50875
b100000 (
b111111111111111111100100010101 !
1'
b100000 )
b111111111011 "
b10100111100100 $
b100000 *
b1011011100110 &
b10010111 #
10
#51000
00
#51125
b111111111111111111000001001010 !
b10011011101011 $
b111111111111111110010001100100 "
b10010101 #
b11111010000011010 &
b11000110 )
b11000110 (
b11000110 *
10
#51250
00
#51375
b111111111111111111000001101000 !
0'
b11100001001110 "
b1010110111000 $
b0 )
b0 (
b1010001 *
b100011111100110 &
b10001011 #
10
#51500
00
#51625
b111111111111111111000110101100 !
b11101110010100 $
b111111111111111100011101011111 "
b10100000 #
b11101010110110011 &
b11 *
10
#51750
00
#51875
b10000100011000 !
b101110001100101 "
b100010100111 $
b101000011 *
b11101101001101 &
b10000011 #
10
#52000
00
#52125
b11001110011101011 !
b1001 (
b100110010110010 $
b10111010100000101 "
1'
b1001 )
b10101001 #
b11101100000011010 &
b1001 *
10
#52250
00
#52375
b110100011010100101 !
0'
b110010110100100101 "
b1100100111000011 $
b0 )
b0 (
b10101010 *
b11110011010000000 &
b11101111 #
10
#52500
00
#52625
b10111001111111011 !
b11000111000110010 $
b11001011010101110 "
b101011101 #
b10001010110011 &
b10010011 *
10
#52750
00
#52875
b10001010010010 !
b111111111111111110100000010010 "
b1101101001000011 $
b10100011 *
b11100010110000000 &
b11110111 #
10
#53000
00
#53125
b111111111111111111001000001111 !
b1110100001011 $
b1010110001111 "
b10001100 #
b10001110000000 &
b111010100 *
10
#53250
00
#53375
b101010101001 !
b1100000101001 "
b11000100100010 $
b1110100 *
b110110000000 &
b10010111 #
10
#53500
00
#53625
b111111111111111111111110011000 !
b1100 (
b11001101111110 $
b101100011000 "
1'
b1100 )
b10011000 #
b101110000000 &
b1100 *
10
#53750
00
#53875
b111111111111111110101001000001 !
b111111111111111101001001011011 "
b10110011111000 $
b1001111001 )
b1001111001 (
b1001111001 *
b11110100000011010 &
b10010100 #
10
#54000
00
