verification/sim_pulsos_tb_golden_f34_est.vcd
$date
	Tue Jul 21 14:47:23 2026
$end
$version
	Icarus Verilog
$end
$timescale
	100ps
$end
$scope module sim_pulsos_tb $end
$var wire 30 ! shaper_out [29:0] $end
$var wire 30 " shaper_corrupted [29:0] $end
$var wire 12 # shaper_clip [11:0] $end
$var wire 29 $ pzc_out [28:0] $end
$var wire 13 % pedestal_out [12:0] $end
$var wire 17 & noise_out [16:0] $end
$var wire 1 ' hits_out $end
$var wire 13 ( event_bt [12:0] $end
$var wire 13 ) event_all [12:0] $end
$var wire 13 * energy_out [12:0] $end
$var wire 1 + bt_mask_out $end
$var parameter 65 , N_CICLOS $end
$var parameter 32 - N_ORBITAS $end
$var parameter 32 . ORBITA $end
$var parameter 72 / RTL_DIR $end
$var reg 1 0 clk $end
$var reg 7 1 occupancy [6:0] $end
$var reg 13 2 offset [12:0] $end
$var reg 1 3 rst $end
$upscope $end
$enddefinitions $end
$comment Show the parameter values. $end
$dumpall
b1011100010111000101111001011100010111000101111011100100111010001101100 /
b110111101100 .
b11 -
b10101010001100 ,
$end
#0
$dumpvars
13
b10010010 2
b11001 1
00
0+
b0 *
b0 )
b0 (
0'
b0 &
bx %
bx $
b0 #
b0 "
b0 !
$end
#125
b0 $
b0 %
10
#250
00
#375
10
#500
00
#625
10
#750
00
#875
b1 )
b1 *
b10010010 #
03
10
#1000
00
#1125
b1111010110011 "
b10010010 $
b1111010110011 &
b0 )
b1000000 *
10
#1250
00
#1375
b111111111111111110001010110011 "
b1 *
b11110001010110011 &
b10011001 #
10
#1500
00
#1625
b111111111111111111100101001101 "
b11110000 )
b10011001 $
b10001010 #
b11111100101001101 &
b11110000 *
10
#1750
00
#1875
b11000011100110 "
b10001010 $
b0 )
b110100 *
b11000011100110 &
b10010000 #
10
#2000
00
#2125
b111111111111111111001000011010 "
b10010000 $
b10011110 #
b11111001000011010 &
b10111001 *
10
#2250
00
#2375
b111111111111111111001010000000 "
b10011110 $
b101100111 *
b11111001010000000 &
b10001110 #
10
#2500
00
#2625
b10110011 "
b10001110 $
b10110011 &
b1111011100 *
10
#2750
00
#2875
b11000010110011 "
b10001 *
b11000010110011 &
b10010010 #
10
#3000
00
#3125
b111111111111111110000111100110 "
b10010010 $
b10011110 #
b11110000111100110 &
b100000000 *
10
#3250
00
#3375
b111111111111111111001100011010 "
b10011110 $
b111001 *
b11111001100011010 &
b10001010 #
10
#3500
00
#3625
b111111111111111111111000011010 "
b10000111 )
b10001010 $
b10001110 #
b11111111000011010 &
b10000111 *
10
#3750
00
#3875
b1000000011010 "
b10001110 $
b0 )
b1001111 *
b1000000011010 &
b10010001 #
10
#4000
00
#4125
b1101001001101 "
b10010001 $
b10010110 #
b1101001001101 &
b1 *
10
#4250
00
#4375
b100110000000 "
b10010110 $
b100001011 *
b100110000000 &
b10011000 #
10
#4500
00
#4625
b111111111111111101101000011010 "
b10011000 $
b10010100 #
b11101101000011010 &
b10000000 *
10
#4750
00
#4875
b111001011 )
b10111011100110 "
b10010100 $
b111001011 *
b10111011100110 &
b10001000 #
10
#5000
00
#5125
b100000011010 "
b1111111 $
b10011101 #
b100000011010 &
b0 )
b1110010 *
b1001 %
10
#5250
00
#5375
b111111111111111011011100011010 "
b10001011 $
b10100 *
b11011011100011010 &
b10010100 #
b10010 %
10
#5500
00
#5625
b111111111111111011100110000000 "
b1101100 )
b1111010 $
b1111111 #
b11011100110000000 &
b1101100 *
b11010 %
10
#5750
00
#5875
b1010110011 "
b1011110 $
b0 )
b1010010 *
b1010110011 &
b10000000 #
b100001 %
10
#6000
00
#6125
b111111111111111110101001001101 "
b1011001 $
b10010010 #
b11110101001001101 &
b10110010 *
b100111 %
10
#6250
00
#6375
b111111111111111110011010000000 "
b1100101 $
b110001 *
b11110011010000000 &
b10001100 #
b101101 %
10
#6500
00
#6625
b110111100110 "
b1011001 $
b10001011 #
b110111100110 &
b111001101 *
b110011 %
10
#6750
00
#6875
b111101001101 "
b1010010 $
b1000001 *
b111101001101 &
b10010101 #
b111001 %
10
#7000
00
#7125
b111111111111111100011000011010 "
b1010111 $
b11100011000011010 &
b11 *
b111110 %
10
#7250
00
#7375
b100 )
b10000001001101 "
b1010001 $
b100 *
b10000001001101 &
b10000011 #
b1000100 %
10
#7500
00
#7625
b111010110011 "
b0 )
b111011 $
b10011010 #
b111010110011 &
b1001000 %
10
#7750
00
#7875
b11 )
b11001010110011 "
b1001101 $
b11 *
b11001010110011 &
b10010101 #
b1001101 %
10
#8000
00
#8125
b111111111111111111000011100110 "
b1000100 $
b10011110 #
b11111000011100110 &
b1 )
b1 *
b1010001 %
10
#8250
00
#8375
b111111111111111110000110000000 "
b1001000 $
b11110000110000000 &
b10001110 #
b1010110 %
10
#8500
00
#8625
b1000000011010 "
b110100 $
b10001010 #
b1000000011010 &
b1011010 %
10
#8750
00
#8875
b111111111111111101000011100110 "
b101101 $
b11101000011100110 &
b10010110 #
b1011101 %
10
#9000
00
#9125
b111111111111111110010100011010 "
b0 )
b110110 $
b10000110 #
b11110010100011010 &
b1100000 %
10
#9250
00
#9375
b1111101 )
b10001001101 "
b100011 $
b1111101 *
b10001001101 &
b10001011 #
b1100011 %
10
#9500
00
#9625
b111111111111111100001010110011 "
b100110 $
b10010011 #
b11100001010110011 &
b1 )
b1 *
b1100101 %
10
#9750
00
#9875
b1101001001101 "
b101011 $
b10101 )
b10101 *
b1101001001101 &
b10000010 #
b1101000 %
10
#10000
00
#10125
b10001001001101 "
b11000 $
b10011000 #
b10001001001101 &
b0 )
b110000 *
b1101010 %
10
#10250
00
#10375
b111111111111111110101001001101 "
b101011 $
b11110101001001101 &
b10011010 #
b1101101 %
10
#10500
00
#10625
b111111111111111100110100011010 "
b10001100 #
b11100110100011010 &
b1010111 *
b1101111 %
10
#10750
00
#10875
b10011100011010 "
b11011 $
b101100011 *
b10011100011010 &
b10000101 #
b1110001 %
10
#11000
00
#11125
b1001011100110 "
b10011 $
b10011011 #
b1001011100110 &
b10110 *
b1110010 %
10
#11250
00
#11375
b11100111100110 "
b100110 $
b1111101 *
b11100111100110 &
b10010110 #
b1110101 %
10
#11500
00
#11625
b100100011010 "
b11111 $
b10100000 #
b100100011010 &
b1111011010 *
b1110111 %
10
#11750
00
#11875
b111111111111111110001001001101 "
b100110 $
b10100001 *
b11110001001001101 &
b10010100 #
b1111010 %
10
#12000
00
#12125
b101110110011 "
b11010111 )
b11001 $
b10001010 #
b101110110011 &
b11010111 *
b1111011 %
10
#12250
00
#12375
b101100011010 "
b1110 $
b101111 )
b101111 *
b101100011010 &
b10010100 #
b1111100 %
10
#12500
00
#12625
b111111111111111110011011100110 "
b10110 $
b11110011011100110 &
b0 )
b11000111 *
b1111110 %
10
#12750
00
#12875
b111111111111111111010111100110 "
b10101 $
b101010001 *
b11111010111100110 &
b10001011 #
b1111111 %
10
#13000
00
#13125
b1000100011010 "
b1011 $
b10001111 #
b1000100011010 &
b1110011 *
b10000000 %
10
#13250
00
#13375
b10110011 "
b1110 $
b101011000 *
b10110011 &
b10010110 #
b10000001 %
10
#13500
00
#13625
b111111111111111111000111100110 "
b10100 $
b10010010 #
b11111000111100110 &
b11110111 *
b10000010 %
10
#13750
00
#13875
b100000011010 "
b1111 $
b1111111 *
b100000011010 &
b10001110 #
b10000011 %
10
#14000
00
#14125
b11001010000000 "
b110101 )
b1010 $
b10010100 #
b11001010000000 &
b110101 *
b10000100 %
10
#14250
00
#14375
b111111111111111010111110110011 "
b1111 $
b0 )
b1000110 *
b11010111110110011 &
b10011110 #
b10000101 %
10
#14500
00
#14625
b111111111111111101100010000000 "
b11000 $
b1111101 #
b11101100010000000 &
b1100000 *
b10000110 %
10
#14750
00
#14875
b111111111111111111111100011010 "
b11111111111111111111111110111 $
b111010111 *
b11111111100011010 &
b10001000 #
10
#15000
00
#15125
b111111111111111101001110000000 "
b10 $
b10010001 #
b11101001110000000 &
b1101110001 *
10
#15250
00
#15375
b11001111 )
b111111111111111111100110000000 "
b1010 $
b11001111 *
b11111100110000000 &
b10000110 #
b10000111 %
10
#15500
00
#15625
b111111111111111110111110000000 "
b0 $
b10010000 #
b11110111110000000 &
b0 )
b10 *
b10000110 %
10
#15750
00
#15875
b1 )
b1010100011010 "
b1001 $
b1 *
b1010100011010 &
b10001101 #
b10000111 %
10
#16000
00
#16125
b111111111111111100001010110011 "
b110 $
b10010111 #
b11100001010110011 &
b0 )
b10000000 *
10
#16250
00
#16375
b111111111111111101101111100110 "
b1111 $
b10010 *
b11101101111100110 &
b10000010 #
b10001000 %
10
#16500
00
#16625
b1001011100110 "
b11111111111111111111111111010 $
b10001000 #
b1001011100110 &
b100100 *
10
#16750
00
#16875
b111111111111111110000001001101 "
b0 $
b10011001 *
b11110000001001101 &
b10010110 #
10
#17000
00
#17125
b111111111111111101100101001101 "
b1101101 )
b1101 $
b10001010 #
b11101100101001101 &
b1101101 *
b10001001 %
10
#17250
00
#17375
b1000011010 "
b1 $
b0 )
b11110 *
b1000011010 &
b10001000 #
10
#17500
00
#17625
b100011010000000 "
b11111111111111111111111111111 $
b10010010 #
b100011010000000 &
b11010001 *
10
#17750
00
#17875
b11000110 )
b10111100011010 "
b1001 $
b11000110 *
b10111100011010 &
b10100011 #
10
#18000
00
#18125
b111111111111111111101100011010 "
b11000 $
b10011101 #
b11111101100011010 &
b0 )
b1 *
b10001011 %
10
#18250
00
#18375
b101010110011 "
b10001 $
b10100111000 *
b101010110011 &
b10010000 #
b10001100 %
10
#18500
00
#18625
b10111 (
1'
b110010000000 "
1+
b10111 )
b100 $
b10010100 #
b110010000000 &
b10111 *
10
#18750
00
#18875
0'
b111010000000 "
b111 $
b0 )
b0 (
b11110001 *
b111010000000 &
b10010101 #
b10001101 %
10
#19000
00
#19125
b10101110110011 "
b1000 $
b10101110110011 &
b100100001 *
10
#19250
00
#19375
b11000011010 "
b111 $
b10110101 *
b11000011010 &
b10011100 #
b10001110 %
10
#19500
00
#19625
b1100000 (
b111011100110 "
1'
b1100000 )
b1101 $
b10010011 #
b111011100110 &
b1100000 *
b10001111 %
10
#19750
00
#19875
0'
bx $
b0 )
b0 (
b1101001 *
b111101001 "
b10001011001111 !
b11101111100011010 &
b10010101 #
bx %
10
#20000
00
#20125
b111000 (
1'
b111000 )
b10010010 #
b10111110000000 &
b1000101101111111 "
b101101111111111 !
b111000 *
10
#20250
00
#20375
0'
b0 )
b0 (
b10111100 *
b11011011001110 "
b10101111101000 !
b101011100110 &
b10110100 #
10
#20500
00
#20625
b10011111 #
b11110101001001101 &
b111111111111111111000000101110 "
b10111100001 !
b11000110 *
10
#20750
00
#20875
b10110 *
b111100110100001 "
b1000111111101110 !
b11110100110110011 &
b10001110 #
10
#21000
00
#21125
b10110000 #
b1111101001101 &
b11001111000000010 "
b10111111010110101 !
b100011 *
10
#21250
00
#21375
b1101101 (
1'
b1101101 )
b1101101 *
b10000111110101011 "
b10000101111000101 !
b1111100110 &
b11111001 #
10
#21500
00
#21625
0'
b11010101 #
b11101001110110011 &
b1100101100101000 "
b1111011101110101 !
b0 )
b0 (
b100100 *
10
#21750
00
#21875
b10010000 *
b100110110010011 "
b110010010101101 !
b11110100011100110 &
b11000100 #
10
#22000
00
#22125
b1011001 (
1'
b1011001 )
b10100101 #
b101000011010 &
b1001011010110 "
b100010111100 !
b1011001 *
10
#22250
00
#22375
0'
b0 )
b0 (
b1001101001 *
b111111111111111110110000011110 "
b111111111111111111101110011110 !
b11111000010000000 &
b10010110 #
10
#22500
00
#22625
b10101100 (
1'
b10101100 )
b10001101 #
b1010001001101 &
b1011000110100010 "
b1001110101010101 !
b10101100 *
10
#22750
00
#22875
0'
b0 )
b0 (
b101010001 *
b10101010111010001 "
b11011000011101011 !
b11010010011100110 &
b10111110 #
10
#23000
00
#23125
b11100111 #
b11111000101001101 &
b1011110101101100 "
b1100110000011111 !
b11100110 *
10
#23250
00
#23375
b100110111 *
b1100010101000001 "
b1010000010001110 !
b10010010110011 &
b11000001 #
10
#23500
00
#23625
b11000011 #
b11101001111100110 &
b10011000000011111 "
b10101110000111001 !
b1101000 *
10
#23750
00
#23875
b101110010 *
b11011110100000000 "
b11010011101001101 !
b1010110110011 &
b11011110 #
10
#24000
00
#24125
b100000001 #
b10111100110 &
b101100101010011001 "
b101100010010110011 !
b10 *
10
#24250
00
#24375
b11100010 *
b10011011010101000 "
b10011110100101000 !
b11111100110000000 &
b101000100 #
10
#24500
00
#24625
b11011111 #
b11101100000011010 &
b111111111111111111101110010100 "
b10001101111010 !
b11111110 *
10
#24750
00
#24875
b11011101 (
1'
b11011101 )
b11011101 *
b111111111111111110111001011110 "
b111111111111111111001010101011 !
b11111101110110011 &
b10010000 #
10
#25000
00
#25125
0'
b10001101 #
b11110011011100110 &
b111111111111111101011111100000 "
b111111111111111111000011111010 !
b0 )
b0 (
b10001 *
10
#25250
00
#25375
b11100 *
b111111111111111111100100011110 "
b111111111111111111101010011110 !
b11111111010000000 &
b10000111 #
10
#25500
00
#25625
b1001000111 (
1'
b1001000111 )
b10010000 #
b100000011010 &
b111111111111111111110110001100 "
b111111111111111111010101110010 !
b1001000111 *
10
#25750
00
#25875
b110100 )
b110100 (
b110100 *
b111111111111111101001001010111 "
b111111111111111111100111010111 !
b11101100010000000 &
b10010001 #
10
#26000
00
#26125
b10000110 #
b11100101110000000 &
b10001010111010010 "
b10100101001010010 !
b11000010 )
b11000010 (
b11000010 *
10
#26250
00
#26375
0'
b0 )
b0 (
b11111101 *
b110110111000111101 "
b110111000100100011 !
b11111110100011010 &
b11010111 #
10
#26500
00
#26625
b101101101 #
b1111001001101 &
b11100000101011111 "
b11010001100010010 !
b1111100 *
10
#26750
00
#26875
b110110 *
b111101011010101111 "
b111010011111111100 !
b10111010110011 &
b100000010 #
10
#27000
00
#27125
b110000111 #
b11101011101001101 &
b10010011001000000101 "
b10010101101010111000 !
b110010011 *
10
#27250
00
#27375
b10100111 *
b1100101101101101100 "
b1100011111110000110 !
b1101111100110 &
b1011011110 #
10
#27500
00
#27625
b0 (
0+
0'
b1100100 )
b1000101000 #
b11111111000011010 &
b111111100101001100 "
b111111101100110010 !
b1100100 *
10
#27750
00
#27875
b0 )
b100010110 *
b10111010001100110 "
b10101000001001100 !
b10010000011010 &
b110010000 #
10
#28000
00
#28125
b11101111 #
b11111011101001101 &
b111111111111111111110110000111 "
b11000111010 !
b10011 *
10
#28250
00
#28375
b1100010 *
b111101010 "
b111111111111111110011000110111 !
b1101110110011 &
b10010001 #
10
#28500
00
#28625
b10010010 #
b11010110011 &
b111111111111111101110010101011 "
b111111111111111101010111111000 !
b10000111 *
10
#28750
00
#28875
b1101001 *
b111111111111111111111110100100 "
b111111111111111110100101010111 !
b1011001001101 &
b10001001 #
10
#29000
00
#29125
b10010001 #
b11110001101001101 &
b111111111111111100110110010101 "
b111111111111111110101001001000 !
b101011110 *
10
#29250
00
#29375
b10010100 (
1'
b10010100 )
1+
b10010100 *
b100000001010010 "
b111111111111111111001110011111 !
b100110010110011 &
b10000101 #
10
#29500
00
#29625
0'
b10100010 #
b10000000011010 &
b1011001101000 "
b111111111111111111011001001110 !
b0 )
b0 (
b10001 *
10
#29750
00
#29875
b100111 *
b111111111111111111001000100001 "
b111111111111111111011111010100 !
b11111101001001101 &
b10010111 #
10
#30000
00
#30125
b10001110 #
b11110110011100110 &
b111111111111111110010010111010 "
b111111111111111111011111010100 !
b1001100 *
10
#30250
00
#30375
b111101110 *
b111111111111111101010010111100 "
b111111111111111111011111010110 !
b11101110011100110 &
b10001011 #
10
#30500
00
#30625
b10000111 #
b11010011000011010 &
b111110111101100 "
b1101011111010010 !
b11011100 *
10
#30750
00
#30875
b11100011 *
b100110010011100111 "
b100100011111001101 !
b1110100011010 &
b10110001 #
10
#31000
00
#31125
b100101011 #
b11010001001101 &
b10100011010101011 "
b10001001001011110 !
b11100111 *
10
#31250
00
#31375
b100010 *
b11000001100001 "
b1110110101110 !
b1001010110011 &
b11100011 #
10
#31500
00
#31625
b10011110 #
b11101101010000000 &
b111111111111111100100110100101 "
b111111111111111110111100100101 !
b1010 *
10
#31750
00
#31875
b11010111 *
b111111111111111100011010011111 "
b111111111111111110111110111001 !
b11101011011100110 &
b10000100 #
10
#32000
00
#32125
b10000011 #
b11111011011100110 &
b111111111111111110110101000111 "
b111111111111111111011001100001 !
b11111001 *
10
#32250
00
#32375
b11001 (
1'
b11001 )
b11001 *
b101111101111 "
b111111111111111111000100001001 !
b1101011100110 &
b10001101 #
10
#32500
00
#32625
0'
b10010100 #
b11110100110110011 &
b111111111111111101110111101100 "
b111111111111111111010000111001 !
b0 )
b0 (
b1100000 *
10
#32750
00
#32875
b101010 *
b111111111111111101001101110110 "
b111111111111111111010111110110 !
b11101110110000000 &
b10001001 #
10
#33000
00
#33125
b10000110 #
b1110000011010 &
b1001100111010 "
b111111111111111111011100100000 !
b10101 *
10
#33250
00
#33375
b1000011 (
1'
b1000011 )
b1000011 *
b100001110100001 "
b111111111111111111011100100001 !
b100110010000000 &
b10010110 #
10
#33500
00
#33625
0'
b10100010 #
b1011100011010 &
b11010000010011 "
b1110011111001 !
b0 )
b0 (
b101000011 *
10
#33750
00
#33875
b1011010110 *
b101010110100001 "
b101101100100001 !
b11111101010000000 &
b10011111 #
10
#34000
00
#34125
b10100111 #
b11111000011100110 &
b1011111000011 "
b10011011011101 !
b1101100 *
10
#34250
00
#34375
b110010111 (
1'
b110010111 )
b110010111 *
b111111111111111111010100001010 "
b111111111111111111110110001010 !
b11111011110000000 &
b10010111 #
10
#34500
00
#34625
0'
b10001111 #
b110010000000 &
b110011110010101 "
b101101100010101 !
b0 )
b0 (
b101001000 *
10
#34750
00
#34875
b1111 *
b10001100001000100 "
b10000000111000100 !
b1011010000000 &
b10101011 #
10
#35000
00
#35125
b11011000 #
b10000101001101 &
b1001100000011101 "
b111011011010000 !
b10 *
10
#35250
00
#35375
b1000100 (
1'
b1000100 )
b1000100 *
b111111111111111110111111010111 "
b11100100100 !
b11110100010110011 &
b10111000 #
10
#35500
00
#35625
b10001101 #
b100010110110011 &
b101010000001000010 "
b100101101010001111 !
b1101 )
b1101 (
b1101 *
10
#35750
00
#35875
0'
b0 )
b0 (
b10110100 *
b1100010100011000010 "
b1100100111100001111 !
b11101100110110011 &
b100111010 #
10
#36000
00
#36125
b1000011100 #
b11110110001001101 &
b101110101110011010 "
b101111111101001101 !
b1111100 *
10
#36250
00
#36375
b101100 *
b101000100010110 "
b101101111111100 !
b11111010100011010 &
b101001100 #
10
#36500
00
#36625
b10100110 #
b100010110011 &
b100110100010010 "
b100010001011111 !
b100100000 *
10
#36750
00
#36875
b101111001 *
b10011100111111111 "
b10000001101111111 !
b11011010000000 &
b10100101 #
10
#37000
00
#37125
b11100000 #
b100010110011 &
b1011000100100111 "
b1010100001110100 !
b101101 *
10
#37250
00
#37375
b100000 *
b101101101110100 "
b111000100111 !
b100110101001101 &
b10111110 #
10
#37500
00
#37625
b10101000 #
b11010110110000000 &
b111111111111111001100110000111 "
b111111111111111110110000000111 !
b100111 *
10
#37750
00
#37875
b110100101 *
b11110101101 "
b111111111111111110110011111010 !
b1101010110011 &
b1111000 #
10
#38000
00
#38125
b10010011 #
b11111000110110011 &
b111111111111111110010011111000 "
b111111111111111111001101000101 !
b110110 *
10
#38250
00
#38375
0+
b11010000 *
b111111111111111110110011101000 "
b111111111111111111000101101000 !
b11111101110000000 &
b10001011 #
10
#38500
00
#38625
b10001101 #
b11111100111100110 &
b111111111111111110110001001111 "
b111111111111111111001001101001 !
b101101011 *
10
#38750
00
#38875
b101100100 *
b111111111111111110110111001010 "
b111111111111111111001101111101 !
b11111101001001101 &
10
#39000
00
#39125
b1111110110011 &
b1001111100000 "
b111111111111111111010000101101 !
b1110100 *
10
#39250
00
#39375
b1011111110 *
b10100111001010 "
b111111111111111111010001001010 !
b11010110000000 &
b10010110 #
10
#39500
00
#39625
b100 )
b10011100 #
b11110000110000000 &
b111111111111111101010111001011 "
b111111111111111111010001001011 !
b100 *
10
#39750
00
#39875
b110110010 )
b110110010 *
b111111111111111111010100110011 "
b111111111111111111010001001101 !
b11100110 &
b10000111 #
10
#40000
00
#40125
b10001111 #
b10010011100110 &
b1100100110101 "
b111111111111111111010001001111 !
b0 )
b10000 *
10
#40250
00
#40375
b11001011 *
b10101000110111 "
b111111111111111111010001010001 !
b11010111100110 &
b10011000 #
10
#40500
00
#40625
b10011100 #
b100001001101 &
b111111111111111111110010100000 "
b111111111111111111010001010011 !
b100110100 *
10
#40750
00
#40875
b10000001 *
b111111111111111111000110100001 "
b111111111111111111010001010100 !
b11111110101001101 &
b10010001 #
10
#41000
00
#41125
b10001110 #
b1101000011010 &
b111001110000 "
b111111111111111111010001010110 !
b11011111 *
10
#41250
00
#41375
b11111010 *
b111111111111111101000101110011 "
b111111111111111111010001011001 !
b11101110100011010 &
b10010101 #
10
#41500
00
#41625
b100110101 )
b10000110 #
b100011100110 &
b111111111111111111110101000000 "
b111111111111111111010001011010 !
b100110101 *
10
#41750
00
#41875
b0 )
b10110111 *
b100011101000001 "
b111111111111111111010001011011 !
b101001011100110 &
b10010001 #
10
#42000
00
#42125
b10100011 #
b11110101101001101 &
b111111111111111101111110101010 "
b111111111111111111010001011101 !
b11101101 *
10
#42250
00
#42375
b100000100 *
b10111010101100 "
b111111111111111111010001011111 !
b11101001001101 &
b10001001 #
10
#42500
00
#42625
b11111111111111111111111111011 $
b10011101 #
b11101100010110011 &
b111111111111111100110100010101 "
b111111111111111111010001100010 !
b101101000 *
b10001110 %
10
#42750
00
#42875
b1110 $
b1100101110 *
b111111111111111101101110110000 "
b111111111111111111010001100011 !
b11110011101001101 &
b10000101 #
b10001111 %
10
#43000
00
#43125
b11111111111111111111111110110 $
b10001000 #
b11101100011010 &
b10111101111110 "
b111111111111111111010001100100 !
b11000 *
10
#43250
00
#43375
b11111111111111111111111111010 $
b1000010 *
b111111111111111100101110000001 "
b111111111111111111010001100111 !
b11101011100011010 &
b10011101 #
b10001110 %
10
#43500
00
#43625
b1110 $
b10000100 #
b1111001001101 &
b1001010110101 "
b111111111111111111010001101000 !
b100111011 *
b10001111 %
10
#43750
00
#43875
b11111111111111111111111110110 $
b100100100 *
b111111111111111100000111101010 "
b111111111111111111010001101010 !
b11100110110000000 &
b10010110 #
b10001110 %
10
#44000
00
#44125
b111 $
b10000010 #
b10010000000 &
b111111111111111111100011101100 "
b111111111111111111010001101100 !
b111100 *
b10001111 %
10
#44250
00
#44375
b11111111111111111111111110100 $
b110 *
b111111111111111111001110111011 "
b111111111111111111010001101110 !
b11111111101001101 &
b10010000 #
b10001110 %
10
#44500
00
#44625
b10 $
b10001110 #
b10000011010 &
b111111111111111111100010001010 "
b111111111111111111010001110000 !
b1101011 *
10
#44750
00
#44875
b0 $
b1000101 *
b10110010111110 "
b111111111111111111010001110001 !
b11100001001101 &
b10010000 #
10
#45000
00
#45125
b10000111 )
b10 $
b10011101 #
b11100111000011010 &
b111111111111111100001010001101 "
b111111111111111111010001110011 !
b10000111 *
10
#45250
00
#45375
b1110 $
b101100 )
b101100 *
b10011000010 "
b111111111111111111010001110101 !
b1000001001101 &
b10000010 #
b10001111 %
10
#45500
00
#45625
b11111111111111111111111110100 $
b10010011 #
b11110101001101 &
b11000111000100 "
b111111111111111111010001110111 !
b0 )
b1000110 *
b10001110 %
10
#45750
00
#45875
b10111100 )
b100 $
b10111100 *
b111111111111111111111111111000 "
b111111111111111111010001111000 !
b101110000000 &
b10011110 #
b10001111 %
10
#46000
00
#46125
b1101100 (
1'
1+
b1110 $
b10010001 #
b10011010110011 &
b1101100101101 "
b111111111111111111010001111010 !
b1101100 )
b1101100 *
b10010000 %
10
#46250
00
#46375
0'
b1 $
b0 )
b0 (
b10100101 *
b111111111111111100100110010101 "
b111111111111111111010001111011 !
b11101010100011010 &
b10011000 #
10
#46500
00
#46625
b100001101 (
1'
b100001101 )
b1000 $
b10000100 #
b11110101000011010 &
b111111111111111101111010011001 "
b111111111111111111010001111111 !
b100001101 *
10
#46750
00
#46875
b11111111111111111111111110101 $
b1001010 )
b1001010 (
b1001010 *
b111111111111111111011101100110 "
b111111111111111111010010000000 !
b1011100110 &
b10001001 #
b10001111 %
10
#47000
00
#47125
b11111111111111111111111111010 $
b10001111 #
b10101101001101 &
b1111111001110 "
b111111111111111111010010000001 !
b1000111 )
b1000111 (
b1000111 *
10
#47250
00
#47375
b0 (
0'
b0 )
bx $
b1011000001000010 "
b1001011111110101 !
b1100001001101 &
b10011001 #
bx %
10
#47500
00
#47625
b10111110 #
b1010110110011 &
b11011101000101111 "
b11010010001111100 !
b11010100 *
10
#47750
00
#47875
b11101 *
b11111000100010110 "
b100101100111001001 !
b11001011101001101 &
b100000000 #
10
#48000
00
#48125
b100001110 #
b11111010011100110 &
b1001010100011110001 "
b1001011010000001011 !
b101010 *
10
#48250
00
#48375
b100010111 *
b111001000010011001 "
b111000001100011001 !
b110110000000 &
b110111100 #
10
#48500
00
#48625
b101110110 #
b1100110110011 &
b11111011001001011 "
b11101110010011000 !
b11111011 *
10
#48750
00
#48875
b1111 *
b110100011110111 "
b111111000010001 !
b11110101011100110 &
b100001111 #
10
#49000
00
#49125
b11100 (
1'
b11100 )
b10101100 #
b11111010010000000 &
b111111111111111110001100010010 "
b111111111111111110111010010010 !
b11100 *
10
#49250
00
#49375
0'
b0 )
b0 (
b10011000 *
b111111111111111101100111011000 "
b111111111111111110011011110010 !
b11111001011100110 &
b10001010 #
10
#49500
00
#49625
b10001000 #
b10110101001101 &
b111101101000 "
b111111111111111110001000011011 !
b1101100 *
10
#49750
00
#49875
b10110000 *
b111111111111111111011101011001 "
b111111111111111110100100111111 !
b111000011010 &
b10010101 #
10
#50000
00
#50125
b10001111 #
b10101001001101 &
b1010110111101 "
b111111111111111110101101110000 !
b11110011 *
10
#50250
00
#50375
b1 *
b111111111111111110010000000011 "
b1101001010000 !
b11100100110110011 &
b10010111 #
10
#50500
00
#50625
b10001011 #
b11110110101001101 &
b100111010100110 "
b110000101011001 !
b101111001 *
10
#50750
00
#50875
b100000 (
1'
b100000 )
b100000 *
b11111001000100 "
b10011101011110 !
b1011011100110 &
b10100101 #
10
#51000
00
#51125
b10100001 #
b11111010000011010 &
b111111111111111110110100101111 "
b111111111111111111100100010101 !
b11000110 )
b11000110 (
b11000110 *
10
#51250
00
#51375
0'
b0 )
b0 (
b1010001 *
b11100000110000 "
b111111111111111111000001001010 !
b100011111100110 &
b10001101 #
10
#51500
00
#51625
b10100000 #
b11101010110110011 &
b111111111111111100011000011011 "
b111111111111111111000001101000 !
b11 *
10
#51750
00
#51875
b101000011 *
b10110011111001 "
b111111111111111111000110101100 !
b11101101001101 &
b10000011 #
10
#52000
00
#52125
b1001 (
1'
b1001 )
b10011101 #
b11101100000011010 &
b111111111111111111100100110010 "
b10000100011000 !
b1001 *
10
#52250
00
#52375
0'
b0 )
b0 (
b10101010 *
b11000001101101011 "
b11001110011101011 !
b11110011010000000 &
b10010000 #
10
#52500
00
#52625
b11110010 #
b10001010110011 &
b110110100101011000 "
b110100011010100101 !
b10010011 *
10
#52750
00
#52875
b10100011 *
b10011100101111011 "
b10111001111111011 !
b11100010110000000 &
b101101100 #
10
#53000
00
#53125
b11100000 #
b10001110000000 &
b100011000010010 "
b10001010010010 !
b111010100 *
10
#53250
00
#53375
b1110100 *
b111111111111111111111110001111 "
b111111111111111111001000001111 !
b110110000000 &
b10100011 #
10
#53500
00
#53625
b1100 (
1'
b1100 )
b10010001 #
b101110000000 &
b1011000101001 "
b101010101001 !
b1100 *
10
#53750
00
#53875
b1001111001 )
b1001111001 (
b1001111001 *
b111111111111111110011110110010 "
b111111111111111111111110011000 !
b11110100000011010 &
b10010111 #
10
#54000
00
#54125
0'
b10001011 #
b100011011100110 &
b11000100100111 "
b111111111111111110101001000001 !
b0 )
b0 (
b11001111 *
10
#54250
00
#54375
b111011001 (
1'
b111011001 )
b111011001 *
b111111111111111110110011000010 "
b111111111111111110110000001111 !
b10110011 &
b10011110 #
10
#54500
00
#54625
0'
b10001101 #
b1100001001101 &
b11011111010 "
b111111111111111110111010101101 !
b0 )
b0 (
b101000010 *
10
#54750
00
#54875
b100101101 (
1'
b100101101 )
b100101101 *
b100011011100101 "
b1011001011 !
b100010000011010 &
b10010011 #
10
#55000
00
#55125
0+
0'
b10100011 #
b11111110100011010 &
b111101101101100000 "
b111101111001000110 !
b0 )
b0 (
b110011 *
10
#55250
00
#55375
b100100000 *
b10011110010010111100 "
b10011110101100111100 !
b11111100110000000 &
b110001000 #
10
#55500
00
#55625
b1100001011 #
b11111111110000000 &
b1110111011101011011 "
b1110111011111011011 !
b1010100110 *
10
#55750
00
#55875
b10000 *
b10000001111011110001 "
b1111111010110100100 !
b10100101001101 &
b1001101111 #
10
#56000
00
#56125
b10 )
b1010011001 #
b11011100011010 &
b1010101000001010010 "
b1010001100100111000 !
b10 *
10
#56250
00
#56375
b0 )
b111011110 *
b1010000011001001111 "
b1001111101010011100 !
b101110110011 &
b111100110 #
10
#56500
00
#56625
b111010011 #
b10011010110011 &
b100011001100111111 "
b100000110010001100 !
b100111100 *
10
#56750
00
#56875
1+
b10000000 *
b11000100001101 "
b11000100111 !
b10101011100110 &
b100011110 #
10
#57000
00
#57125
b10011110 #
b11111010000011010 &
b111111111111111011111010011010 "
b111111111111111100101010000000 !
b1010111 *
10
#57250
00
#57375
b11010 *
b111111111111111100010101101010 "
b111111111111111100001000011101 !
b1101001101 &
b10000001 #
10
#57500
00
#57625
b10000011 #
b11110010111100110 &
b111111111111111100010010100110 "
b111111111111111101111011000000 !
b10111111 *
10
#57750
00
